{
  "sections": {
    "image-with-text-overlay": {
      "type": "image--image-with-text-overlay",
      "settings": {
        "image": "shopify:\/\/shop_images\/background_banner.png",
        "subheading": "tasty n' sweet",
        "title": "Recipes You'll love",
        "text": "",
        "parallax": true,
        "alignment": "top",
        "hero_size": "small",
        "text-over-image-width": "full-width",
        "button_link": "",
        "button_label": ""
      }
    },
    "main": {
      "type": "template--blog",
      "settings": {
        "blog_layout": "grid",
        "blog-posts-per-page": 12,
        "show_author_name": false,
        "show_dates": false
      }
    },
    "newsletter": {
      "type": "newsletter--newsletter",
      "disabled": true,
      "settings": {
        "subheading": "Subheading",
        "title": "Join our mailing list",
        "newsletter_description": ""
      }
    }
  },
  "order": [
    "image-with-text-overlay",
    "main",
    "newsletter"
  ]
}